[
  {
    "Id": 1,
    "Name": "admin",
    "Password": "U2FsdGVkX19sBa9gcMCaxOQPvvGjScvFysdPnjggWiY=",
    "IsAdmin": true,
    "Email": "admin@admin.pl",
    "FacebookId": null
  },
  {
    "Id": 2,
    "Name": "Hubert",
    "Password": "U2FsdGVkX187cUBqOpCPhNj/hJrw7bb+Yf+6xO+0VmI=",
    "IsAdmin": false,
    "Email": "Hubert@hubert.hubert",
    "FacebookId": null
  },
  {
    "Id": 3,
    "Name": "Hubert",
    "Password": "U2FsdGVkX1/3rCPpi2B6XBdKUShykTfVdEip7f9MLv8=",
    "IsAdmin": false,
    "Email": "Hubert@hubert.hubert",
    "FacebookId": null
  },
  {
    "Id": 4,
    "Name": "Hubert",
    "Password": "U2FsdGVkX18uNKBVsnhXp2DR4RapEVXWTG1rdapTYls=",
    "IsAdmin": false,
    "Email": "Hubert@hubert.hubert",
    "FacebookId": null
  }
]